…
 gather(`1999`, `2000`, key = "year", value = "cases")

https://d33wubrfki0l68.cloudfront.net/3aea19108d39606bbe49981acda07696c0c7fcd8/2de65/images/tidy-9.png



##spreading

this is kinda the oppoise of gather

when an observation is scattered across multiple rows. For example, take table2: an observation is a country in a year, but each observation is spread across two rows.


#> # A tibble: 12 x 4
#>   country      year type           count
#>   <chr>       <int> <chr>          <int>
#> 1 Afghanistan  1999 cases            745
#> 2 Afghanistan  1999 population  19987071
#> 3 Afghanistan  2000 cases           2666
#> 4 Afghanistan  2000 population  20595360
#> 5 Brazil       1999 cases          37737
#> 6 Brazil       1999 population 172006362
#> # … with 6 more rows
…
